module go-url-shortener-app

go 1.17

require (
	github.com/leodido/go-urn v1.1.0 // indirect
	github.com/pkg/errors v0.9.1
	github.com/teris-io/shortid v0.0.0-20201117134242-e59966efd125
	github.com/vmihailenco/msgpack/v5 v5.3.5
	github.com/vmihailenco/tagparser/v2 v2.0.0 // indirect
	gopkg.in/dealancer/validate.v2 v2.1.0
)

require (
	github.com/go-chi/chi/v5 v5.0.7
	github.com/go-redis/redis/v8 v8.11.4
	github.com/subosito/gotenv v1.2.0
	go.mongodb.org/mongo-driver v1.8.1
)

require (
	github.com/cespare/xxhash/v2 v2.1.2 // indirect
	github.com/dgryski/go-rendezvous v0.0.0-20200823014737-9f7001d12a5f // indirect
	github.com/go-stack/stack v1.8.0 // indirect
	github.com/golang/snappy v0.0.3 // indirect
	github.com/klauspost/compress v1.13.6 // indirect
	github.com/xdg-go/pbkdf2 v1.0.0 // indirect
	github.com/xdg-go/scram v1.0.2 // indirect
	github.com/xdg-go/stringprep v1.0.2 // indirect
	github.com/youmark/pkcs8 v0.0.0-20181117223130-1be2e3e5546d // indirect
	golang.org/x/crypto v0.0.0-20210513164829-c07d793c2f9a // indirect
	golang.org/x/net v0.0.0-20210510120150-4163338589ed // indirect
	golang.org/x/sync v0.0.0-20201020160332-67f06af15bc9 // indirect
	golang.org/x/sys v0.0.0-20210514084401-e8d321eab015 // indirect
	golang.org/x/text v0.3.6 // indirect
)
